tb_registerfile2.vcd
$date
	Wed Mar  9 09:47:57 2022
$end
$version
	Icarus Verilog
$end
$timescale
	1s
$end
$scope module tb_registerfile2 $end
$var wire 64 ! valB [63:0] $end
$var wire 64 " valA [63:0] $end
$var wire 4 # srcB [3:0] $end
$var wire 4 $ srcA [3:0] $end
$var wire 4 % dstM [3:0] $end
$var wire 4 & dstE [3:0] $end
$var reg 1 ' clk $end
$var reg 4 ( icode [3:0] $end
$var reg 4 ) rA [3:0] $end
$var reg 4 * rB [3:0] $end
$var reg 64 + valE [63:0] $end
$var reg 64 , valM [63:0] $end
$scope module uut1 $end
$var wire 1 ' clk $end
$var wire 64 - valE [63:0] $end
$var wire 64 . valM [63:0] $end
$var wire 4 / srcB [3:0] $end
$var wire 4 0 srcA [3:0] $end
$var wire 4 1 dstM [3:0] $end
$var wire 4 2 dstE [3:0] $end
$var reg 64 3 valA [63:0] $end
$var reg 64 4 valB [63:0] $end
$upscope $end
$scope module uut2 $end
$var wire 1 5 cnd $end
$var wire 4 6 icode [3:0] $end
$var wire 4 7 rA [3:0] $end
$var wire 4 8 rB [3:0] $end
$var reg 4 9 dstE [3:0] $end
$var reg 4 : dstM [3:0] $end
$var reg 4 ; srcA [3:0] $end
$var reg 4 < srcB [3:0] $end
$upscope $end
$upscope $end
$enddefinitions $end
#0
$dumpvars
bx <
bx ;
b1111 :
bx 9
bx 8
bx 7
b110 6
15
bx 4
bx 3
bx 2
b1111 1
bx 0
bx /
bx .
bx -
bx ,
bx +
bx *
bx )
b110 (
0'
bx &
b1111 %
bx $
bx #
bx "
bx !
$end
#1
b11 &
b11 2
b11 9
b11 #
b11 /
b11 <
b10 $
b10 0
b10 ;
b101 +
b101 -
b11 *
b11 8
b10 )
b10 7
#5
b101 !
b101 4
1'
#10
0'
#11
bx !
bx 4
b10 &
b10 2
b10 9
b10 #
b10 /
b10 <
b10 *
b10 8
#15
b101 !
b101 4
b101 "
b101 3
1'
#20
0'
#21
b110 +
b110 -
#25
b110 !
b110 4
b110 "
b110 3
1'
#30
0'
#31
b101 !
b101 4
b11 &
b11 2
b11 9
b11 #
b11 /
b11 <
b11 *
b11 8
#35
b110 !
b110 4
1'
